[
    {
        "id": 1,
        "name": "Stylo",
        "price": 1.5,
        "image": "pen.jpg"
    },
    {
        "id": 2,
        "name": "Crayon",
        "price": 1.0,
        "image": "pencil.jpg"
    },
    {
        "id": 3,
        "name": "Gomme",
        "price": 0.5,
        "image": "rubber.jpg"
    },
    {
        "id": 4,
        "name": "Règle",
        "price": 2.9,
        "image": "ruler.png"
    },
    {
        "id": 5,
        "name": "Compas",
        "price": 4.9,
        "image": "compass.jpg"
    },
    {
        "id": 6,
        "name": "Taille crayon",
        "price": 2.35,
        "image": "pencil_sharpener.jpg"
    }
]